<svg xmlns='http://www.w3.org/2000/svg' viewBox='0 0 22 19'>
    <path fill="#005d7a" stroke="none" d="M 0.5,16 L 0.5,18 8,18 8,5 14,5 14,18 21.5,18 21.5,16 16,16 16,5 18,3 18,1 16,1 16,3 14,3 14,1 12,1 12,3 10,3 10,1 8,1 8,3 6,3 6,1 4,1 4,3 6,5 6,16 Z" />
</svg>
